Linear Regression Analysis
…
    select(data_id, par_id,
           pi_true, se_true, sp_true, 
           n, n_se, n_sp, 
           `Bayesian-Mean`, `Rogan-Gladen`) %>% 
    mutate(pi_true = scale_this(pi_true),
           se_true = scale_this(se_true),
           sp_true = scale_this(sp_true),
           n       = scale_this(n),
           n_se    = scale_this(n_se),
           n_sp    = scale_this(n_sp)) %>%
    rename(error_BM = `Bayesian-Mean`,
           error_RG = `Rogan-Gladen`) %>% 
    print()

## # A tibble: 999,979 x 10
##    data_id par_id pi_true se_true sp_true     n   n_se   n_sp  error_BM error_RG
##      <int>  <int>   <dbl>   <dbl>   <dbl> <dbl>  <dbl>  <dbl>     <dbl>    <dbl>
##  1       1      1  -0.159  -0.474    1.19 -1.31 -0.723 -0.664  0.0758    0.0709 
##  2       2      1  -0.159  -0.474    1.19 -1.31 -0.723 -0.664  0.0743    0.0688 
##  3       3      1  -0.159  -0.474    1.19 -1.31 -0.723 -0.664  0.0112    0.00772
##  4       4      1  -0.159  -0.474    1.19 -1.31 -0.723 -0.664 -0.0159   -0.0190 
##  5       5      1  -0.159  -0.474    1.19 -1.31 -0.723 -0.664 -0.0274   -0.0309 
##  6       6      1  -0.159  -0.474    1.19 -1.31 -0.723 -0.664  0.143     0.135  
##  7       7      1  -0.159  -0.474    1.19 -1.31 -0.723 -0.664 -0.0308   -0.0343 
##  8       8      1  -0.159  -0.474    1.19 -1.31 -0.723 -0.664  0.000459 -0.00344
##  9       9      1  -0.159  -0.474    1.19 -1.31 -0.723 -0.664  0.0448    0.0403 
## 10      10      1  -0.159  -0.474    1.19 -1.31 -0.723 -0.664  0.0523    0.0479 
## # ... with 999,969 more rows
…
